{
    "Barrel": [
        [
            [
                6,
                9
            ],
            [
                3,
                0
            ],
            [],
            [
                7,
                0
            ],
            [
                5,
                7,
                11
            ],
            [
                1,
                4
            ],
            [
                10,
                9
            ],
            [
                1
            ],
            [
                3,
                11,
                9,
                8
            ],
            [],
            [
                1,
                2,
                7
            ],
            [
                13
            ],
            [
                3,
                5,
                2
            ],
            [
                7,
                5
            ],
            [],
            [
                9,
                1
            ],
            [
                6,
                2,
                4
            ],
            [
                8,
                5,
                4,
                3
            ],
            [],
            [
                5,
                0
            ],
            [
                6
            ],
            [
                0
            ],
            [
                7
            ],
            [
                12
            ],
            [
                4
            ],
            [
                7
            ],
            [],
            [],
            [
                7
            ],
            [
                2
            ],
            [
                5
            ],
            [
                5,
                4
            ]
        ],
        [
            [
                6
            ],
            [
                1
            ],
            [
                6,
                12,
                10
            ],
            [
                2
            ],
            [
                6,
                15,
                7
            ],
            [
                6
            ],
            [
                6,
                11
            ],
            [
                5,
                1,
                4
            ],
            [
                6
            ],
            [
                6,
                3
            ],
            [],
            [
                6
            ],
            [
                6,
                2
            ],
            [
                9
            ],
            [
                6,
                7
            ],
            [
                10,
                6,
                0
            ],
            [
                6,
                4,
                3
            ],
            [
                15,
                4
            ],
            [
                5
            ],
            [],
            [
                0,
                9,
                6
            ],
            [
                6,
                3
            ],
            [
                6,
                0
            ],
            [
                6
            ],
            [],
            [
                10
            ],
            [
                6,
                1,
                9
            ],
            [
                6,
                10
            ],
            [
                6
            ],
            [
                0,
                2,
                6
            ],
            [
                6
            ],
            [
                10,
                6
            ]
        ]
    ],
    "Endcap": [
        [
            [],
            [
                7,
                1,
                5,
                2,
                6
            ],
            [],
            [
                12,
                11
            ],
            [],
            [
                11
            ],
            [],
            [],
            [
                9
            ],
            [],
            [],
            [],
            [],
            [
                1,
                0
            ],
            [
                11
            ],
            [],
            [],
            [
                0,
                4,
                5,
                11,
                10
            ],
            [],
            [],
            [],
            [],
            [
                0
            ],
            [
                9,
                3
            ],
            [
                7
            ],
            [],
            [],
            [],
            [],
            [
                5
            ],
            [],
            []
        ],
        [
            [
                4
            ],
            [],
            [],
            [],
            [
                12
            ],
            [],
            [],
            [],
            [
                9,
                5
            ],
            [
                8
            ],
            [
                9,
                10,
                12,
                11
            ],
            [
                1
            ],
            [
                1,
                10
            ],
            [
                1,
                4,
                0
            ],
            [],
            [
                0,
                2,
                12,
                3,
                9
            ],
            [
                5,
                7
            ],
            [
                11
            ],
            [],
            [
                2,
                4,
                5,
                7,
                8,
                11,
                12
            ],
            [
                12
            ],
            [],
            [
                8
            ],
            [],
            [],
            [
                0
            ],
            [
                0,
                11
            ],
            [
                0
            ],
            [
                3
            ],
            [],
            [
                0,
                9,
                12
            ],
            [
                0,
                4
            ]
        ]
    ]
}